{
  "Comment.nvim": { "branch": "master", "commit": "e30b7f2008e52442154b66f7c519bfd2f1e32acb" },
  "cmp-buffer": { "branch": "main", "commit": "3022dbc9166796b644a841a02de8dd1cc1d311fa" },
  "cmp-cmdline": { "branch": "main", "commit": "d250c63aa13ead745e3a40f61fdd3470efde3923" },
  "cmp-nvim-lsp": { "branch": "main", "commit": "39e2eda76828d88b773cc27a3f61d2ad782c922d" },
  "cmp-path": { "branch": "main", "commit": "91ff86cd9c29299a64f968ebb45846c485725f23" },
  "cmp-vsnip": { "branch": "main", "commit": "989a8a73c44e926199bfd05fa7a516d51f2d2752" },
  "friendly-snippets": { "branch": "main", "commit": "de8fce94985873666bd9712ea3e49ee17aadb1ed" },
  "gitsigns.nvim": { "branch": "main", "commit": "ee7634ab4f0a6606438fe13e16cbf2065589a5ed" },
  "gruvbox-material": { "branch": "master", "commit": "b16dcd787db5ba9302b54ebeac186784c2aed29a" },
  "lazy.nvim": { "branch": "main", "commit": "077102c5bfc578693f12377846d427f49bc50076" },
  "lazygit.nvim": { "branch": "main", "commit": "56760339a81cd1540d5a72fd9d93010a2677b55d" },
  "lsp_signature.nvim": { "branch": "master", "commit": "fc38521ea4d9ec8dbd4c2819ba8126cea743943b" },
  "lspsaga.nvim": { "branch": "main", "commit": "d027f8b9c7c55e26cf4030c8657a2fc8222ed762" },
  "lualine.nvim": { "branch": "master", "commit": "b431d228b7bbcdaea818bdc3e25b8cdbe861f056" },
  "mason.nvim": { "branch": "main", "commit": "e2f7f9044ec30067bc11800a9e266664b88cda22" },
  "menu": { "branch": "main", "commit": "ee85b2e394fde354bd24e35ff7a688d10c9212fa" },
  "multicursor.nvim": { "branch": "1.0", "commit": "8c255447b238ac994ae56ca34024bd8cfd3131c9" },
  "noice.nvim": { "branch": "main", "commit": "df448c649ef6bc5a6a633a44f2ad0ed8d4442499" },
  "none-ls.nvim": { "branch": "main", "commit": "dcc8cd4efdcb29275681a3c95786a816330dbca6" },
  "nui.nvim": { "branch": "main", "commit": "b58e2bfda5cea347c9d58b7f11cf3012c7b3953f" },
  "nvim-autopairs": { "branch": "master", "commit": "ee297f215e95a60b01fde33275cc3c820eddeebe" },
  "nvim-cmp": { "branch": "main", "commit": "29fb4854573355792df9e156cb779f0d31308796" },
  "nvim-early-retirement": { "branch": "main", "commit": "2c36a5671b9d8f0d9e11b77c5a55de802bc45e34" },
  "nvim-lspconfig": { "branch": "master", "commit": "0d62a16429dba5fded93a076237079b81527e8f3" },
  "nvim-surround": { "branch": "main", "commit": "ec2dc7671067e0086cdf29c2f5df2dd909d5f71f" },
  "nvim-tree.lua": { "branch": "master", "commit": "59e65d88db177ad1e6a8cffaafd4738420ad20b6" },
  "nvim-treesitter": { "branch": "master", "commit": "bab7b0f20bd3e805b77231a77f516c7d69382693" },
  "nvim-web-devicons": { "branch": "master", "commit": "19d257cf889f79f4022163c3fbb5e08639077bd8" },
  "pantran.nvim": { "branch": "main", "commit": "250b1d8e81f83e6aff061f4c75db008c684f5971" },
  "plenary.nvim": { "branch": "master", "commit": "2d9b06177a975543726ce5c73fca176cedbffe9d" },
  "rest.nvim": { "branch": "main", "commit": "91badd46c60df6bd9800c809056af2d80d33da4c" },
  "telescope-import.nvim": { "branch": "main", "commit": "abce03c71791bd27fc9043b62b5483467875b758" },
  "telescope-project.nvim": { "branch": "master", "commit": "796200876bb0fe8157b8eb1ce03d927d3827a052" },
  "telescope.nvim": { "branch": "0.1.x", "commit": "df534c3042572fb958586facd02841e10186707c" },
  "vim-vsnip": { "branch": "master", "commit": "02a8e79295c9733434aab4e0e2b8c4b7cea9f3a9" },
  "volt": { "branch": "main", "commit": "229b4f1bc865c866227dd0e2ecda11ab6ec2c8cc" }
}
