{
    "languageserver": {
        "haskell": {
            "command": "hie-wrapper",
            "rootPatterns": [
                ".stack.yaml",
                "stack.yaml",
                "cabal.config",
                "package.yaml"
            ],
            "filetypes": [
                "hs",
                "lhs",
                "haskell"
            ],
            "initializationOptions": {
                "languageServerHaskell": {}
            }
        },
        "bash": {
            "command": "bash-language-server",
            "args": [
                "start"
            ],
            "filetypes": [
                "sh"
            ],
            "ignoredRootPaths": [
                "~"
            ]
        }
    },
    "java.maven.downloadSources": true,
    "python.jediEnabled": false,
    "python.linting.enabled": true,
    "python.linting.pylintEnabled": true,
    "python.formatting.provider": "black",
    "python.pythonPath": "/Users/joakim.andersson/.local/share/virtualenvs/cove-onnxruntime-An4ycmcN/bin/python"
}
